<svg xmlns="http://www.w3.org/2000/svg" width="569.221" height="526.804" viewBox="0 0 569.221 526.804">
  <g id="add_new_topic-01" data-name="add new topic-01" transform="translate(24.628 -59.562)">
    <path id="Path_401" data-name="Path 401" d="M793.562,131.156c.341,8.879,4.907,17.376,11.6,21.594,3.328,2.1,7.379,3.155,10.907,1.569a9.22,9.22,0,0,0,4.764-10.571c-1.216-3.828-5.014-5.741-6.625-9.364-1.272-2.859-.987-6.33-1.9-9.369-1.284-4.255-5.114-7.262-8.97-7.042C798.18,118.268,793.334,125.218,793.562,131.156Z" transform="translate(-434.082 -35.552)" fill="#e7f7f7"/>
    <path id="Path_402" data-name="Path 402" d="M574.918,638.291c-19.166.737-37.509,10.592-46.613,25.042-4.525,7.183-6.81,15.928-3.387,23.544S538.8,700,547.737,697.161c8.263-2.625,12.392-10.823,20.212-14.3,6.171-2.746,13.663-2.132,20.223-4.11,9.185-2.77,15.676-11.039,15.2-19.362C602.739,648.26,587.736,637.8,574.918,638.291Z" transform="translate(-285.622 -316.02)" fill="#e7f7f7"/>
    <path id="Path_403" data-name="Path 403" d="M240.034,646.689c-9.6,4.495-1.911,13.416-1.135,14.061,3.417,2.837,7.723,4.235,10.6,7.8,1.911,2.372,3.006,5.5,4.825,7.965,9.3,12.62,13.632-4.268,8.629-17.268C260.092,651.819,247.042,643.409,240.034,646.689Z" transform="translate(-146.012 -307.985)" fill="#e7f7f7"/>
    <path id="Path_404" data-name="Path 404" d="M111.714,135.84c.522,7.862-9.078,13.118-8.138,20.928a8.717,8.717,0,0,0,7.326,7.392c4.9.687,9.739-2.635,12.721-7.234,5.832-9,10.076-27.612,1.022-35.669-3.1-2.76-7.184-3.779-10.738-1.576C107.152,123.868,111.288,129.428,111.714,135.84Z" transform="translate(-78.037 -35.821)" fill="#e7f7f7"/>
    <ellipse id="Ellipse_29" data-name="Ellipse 29" cx="6.693" cy="7.822" rx="6.693" ry="7.822" transform="translate(233.316 67.596)" fill="#e7f7f7"/>
    <ellipse id="Ellipse_30" data-name="Ellipse 30" cx="9.775" cy="11.424" rx="9.775" ry="11.424" transform="translate(165.95 59.562)" fill="#e7f7f7"/>
    <ellipse id="Ellipse_31" data-name="Ellipse 31" cx="7.793" cy="9.108" rx="7.793" ry="9.108" transform="translate(284.696 276.046)" fill="#e7f7f7"/>
    <ellipse id="Ellipse_32" data-name="Ellipse 32" cx="5.426" cy="6.341" rx="5.426" ry="6.341" transform="translate(125.663 373.529)" fill="#e7f7f7"/>
    <path id="Path_405" data-name="Path 405" d="M122.043,109.658c-15.542,5.364-30.117,18.61-33.927,37.018-1.523,7.36-1.279,15.147-3.2,22.38-4.436,16.717-19.083,26.512-33.064,32.787S22.606,213.056,12.4,225.865C1.418,239.65-1.377,260.113.575,278.811c3.971,38.037,29.977,74.594,62.744,75.982,20.167.854,40.469-11,59.98-4.98,12.5,3.857,22.559,14.536,31.313,25.651s16.925,23.213,27.779,31.415,25.371,11.84,36.712,4.593c10.385-6.636,15.578-20.338,20.79-32.757,8.346-19.886,9.844-7.095,21.55-24.514,6.2-9.225,17.5-15.245,26.079-21.326s19.278-8.982,28.828-5.372c11.687,4.417,26,18.426,34.846,28.389,19.337,21.785,46.287-4.454,71.8-14.25s44.943-39.956,43.595-71.306c-1.527-35.5-26.631-63.5-52.96-81.284-7.832-5.29-16.007-10.111-22.79-17.106-11.661-12.027-18.2-29.4-28.465-43.051-14.556-19.36-38.3-30.505-59.413-23.043-15.681,5.544-27.86,20.071-42.862,27.764a54.593,54.593,0,0,1-52.183-1.352c-12.5-7.2-23.663-22.633-37.617-25.635C155.3,103.4,136.609,104.63,122.043,109.658Z" transform="translate(-24.628 -28.099)" fill="#e7f7f7"/>
    <line id="Line_73" data-name="Line 73" y2="116.308" transform="translate(252.31 272.724)" fill="none" stroke="#070707" stroke-miterlimit="10" stroke-width="3.44"/>
    <rect id="Rectangle_369" data-name="Rectangle 369" width="58.266" height="3.464" transform="translate(209.999 265.011)" fill="#070707"/>
    <line id="Line_74" data-name="Line 74" x1="25.043" y2="45.096" transform="translate(267.663 222.729)" fill="none" stroke="#070707" stroke-linecap="round" stroke-linejoin="round" stroke-width="2.828"/>
    <rect id="Rectangle_370" data-name="Rectangle 370" width="141.492" height="6.784" transform="translate(181.564 268.475)" fill="#2e110a"/>
    <rect id="Rectangle_371" data-name="Rectangle 371" width="31.994" height="6.069" transform="translate(235.479 274.259)" fill="#2e110a"/>
    <path id="Path_406" data-name="Path 406" d="M330.292,298.735l7.647,5.1a7.041,7.041,0,0,0,10.623-3.763c8.341-26.714-3.022-24.742-3.022-24.742l-11.014-.011a1.924,1.924,0,0,0-1.9,1.622l-3.164,19.892A1.924,1.924,0,0,0,330.292,298.735Z" transform="translate(-182.773 -112.858)" fill="#ffc3bd"/>
    <path id="Path_407" data-name="Path 407" d="M322.918,305.411c-.553.5-7.153,16.189-7.153,16.189l-16.85-5.333,16.5-28.885Z" transform="translate(-166.185 -119.427)" fill="#ffc3bd"/>
    <path id="Path_408" data-name="Path 408" d="M372.536,305.14c0,.367,1.566,4.4,2.09,6.09a.729.729,0,0,1-.879.921l-4.2-.867Z" transform="translate(-204.574 -129.078)" fill="#ffc3bd"/>
    <path id="Path_409" data-name="Path 409" d="M341.539,332.545l-4.327-3.652,2.038,8.832Z" transform="translate(-186.999 -141.988)"/>
    <path id="Path_410" data-name="Path 410" d="M369.457,302.6a1.141,1.141,0,1,1-1.592.269A1.141,1.141,0,0,1,369.457,302.6Z" transform="translate(-203.544 -127.585)"/>
    <path id="Path_411" data-name="Path 411" d="M366.418,320.6,365.3,320.3a3.248,3.248,0,0,1-1.431-.808l-.594-.576" transform="translate(-201.167 -136.567)" fill="none" stroke="#000" stroke-linecap="round" stroke-linejoin="round" stroke-width="0.86"/>
    <path id="Path_412" data-name="Path 412" d="M366.708,293.684s-2.407-.11-2.356.8,2.959.871,2.959.871,1.965-.031,2.011-1.04C369.345,293.791,366.708,293.684,366.708,293.684Z" transform="translate(-201.749 -122.85)"/>
    <path id="Path_413" data-name="Path 413" d="M348.14,260.03c-1.751-7.2-12.081-6.569-16.65-2.444l0,0c-9.375,1.229-16.178,3.314-15.172,11.456a64.1,64.1,0,0,1,.246,14.939l7.7-3.447,3.148-4.417c-.119.607,6.649-2.015,5.142-7.584,0,0,10.407.044,11.275-.311l.005,0C344.058,268.183,349.856,267.1,348.14,260.03Z" transform="translate(-175.591 -101.574)"/>
    <path id="Path_414" data-name="Path 414" d="M333.02,295.416a4.149,4.149,0,1,1-4.782-3.4A4.149,4.149,0,0,1,333.02,295.416Z" transform="translate(-180.243 -121.914)" fill="#ffc3bd"/>
    <path id="Path_415" data-name="Path 415" d="M334.266,299.733s0-2.994-2.686-2.544" transform="translate(-183.939 -124.732)" fill="none" stroke="#000" stroke-linecap="round" stroke-linejoin="round" stroke-width="0.86"/>
    <path id="Path_416" data-name="Path 416" d="M278.087,346.675s-17.787,4.587-19.1,29.553.151,50.924.151,50.924l36.215,3.111s6.084-29.555,6.99-46.5c.837-15.671-7.378-32.475-7.378-32.475Z" transform="translate(-144.187 -151.652)" fill="#407bff"/>
    <path id="Path_417" data-name="Path 417" d="M327.5,435.982l44.826-13.744,2.96,11.649-31.082,16.262Z" transform="translate(-181.723 -192.719)" fill="#efbdbb"/>
    <path id="Path_418" data-name="Path 418" d="M424.185,416.472s9.444-8.716,14.443-2.764c3.231,3.846,1.789,10.277-1.242,14.41a6.951,6.951,0,0,1-9.448,1.555l-5.022-3.348Z" transform="translate(-233.579 -186.953)" fill="#efbdbb"/>
    <path id="Path_419" data-name="Path 419" d="M446.39,411.631s7.5-1.2,13.077,10.243a1.636,1.636,0,0,1-.832,2.226h0a1.638,1.638,0,0,1-1.968-.587c-1.122-1.587-3.821-4.414-9.329-5.564Z" transform="translate(-246.336 -186.935)" fill="#efbdbb"/>
    <path id="Path_420" data-name="Path 420" d="M298.591,371.834a11.48,11.48,0,0,0-19.6,11.965l8.583,14.057,18.949-13.025Z" transform="translate(-154.444 -162.336)" fill="#3770d3"/>
    <line id="Line_75" data-name="Line 75" x1="7.935" y1="12.997" transform="translate(144.147 209.498)" fill="none" stroke="#070707" stroke-linecap="round" stroke-linejoin="round" stroke-width="1.147"/>
    <path id="Path_421" data-name="Path 421" d="M318.748,406.851l13.609,21.379,36.083,14.344-1.789,10.258L322.886,445.4a11.518,11.518,0,0,1-7.289-4.448l-15.8-21.077Z" transform="translate(-166.666 -184.356)" fill="#ffc3bd"/>
    <path id="Path_422" data-name="Path 422" d="M447.279,484.394s17.592-3.945,22.158,10.308h-23.2Z" transform="translate(-246.253 -226.228)" fill="#ffc3bd"/>
    <path id="Path_423" data-name="Path 423" d="M366.234,653.2l-12.483,12.226-9.643-9.322L357.085,643.3Z" transform="translate(-190.748 -312.86)" fill="#ffc3bd"/>
    <path id="Path_424" data-name="Path 424" d="M330.251,678.006l-6.749,6.981,9.767,15.043a9.653,9.653,0,0,1-1.332,10.313l-1.386,1.71-36.075-35,20.068-14.461Z" transform="translate(-163.774 -323.345)" fill="#353535"/>
    <line id="Line_76" data-name="Line 76" x1="35.016" y1="33.853" transform="translate(134.529 350.947)" fill="none" stroke="#070707" stroke-linecap="round" stroke-linejoin="round" stroke-width="1.147"/>
    <path id="Path_425" data-name="Path 425" d="M327.127,682.425a5.053,5.053,0,1,0,7.145-.121A5.053,5.053,0,0,0,327.127,682.425Z" transform="translate(-180.746 -333.289)" fill="none" stroke="#070707" stroke-linecap="round" stroke-linejoin="round" stroke-width="1.147"/>
    <line id="Line_77" data-name="Line 77" x1="4.362" y2="0.137" transform="translate(160.233 369.137)" fill="none" stroke="#070707" stroke-linecap="round" stroke-linejoin="round" stroke-width="1.147"/>
    <line id="Line_78" data-name="Line 78" x1="4.362" y2="0.137" transform="translate(157.687 365.223)" fill="none" stroke="#070707" stroke-linecap="round" stroke-linejoin="round" stroke-width="1.147"/>
    <path id="Path_426" data-name="Path 426" d="M395.544,562.156l-48.429,40.7,19.29,16.613,52.352-37.658Z" transform="translate(-192.381 -268.762)" fill="#0e1214"/>
    <path id="Path_427" data-name="Path 427" d="M259.141,522.669s68.269-.432,100.891-.151a16.575,16.575,0,0,1,16.431,16.58h0a16.581,16.581,0,0,1-16.581,16.581h-75.32c-6.032,0-14.324-.536-18.834-4.543C260.072,546.11,256.973,536,259.141,522.669Z" transform="translate(-144.191 -247.168)" fill="#263238"/>
    <path id="Path_428" data-name="Path 428" d="M446.48,688.284l-3.456,14.384H429.612l3.4-15.149Z" transform="translate(-237.217 -336.895)" fill="#ffc3bd"/>
    <path id="Path_429" data-name="Path 429" d="M436.234,718.507v9.71l17.478,4.026a9.653,9.653,0,0,1,6.211,8.34l.192,2.192-50.266-.091,4.377-24.345Z" transform="translate(-226.476 -353.645)" fill="#353535"/>
    <line id="Line_79" data-name="Line 79" x1="48.704" transform="translate(184.207 384.399)" fill="none" stroke="#070707" stroke-linecap="round" stroke-linejoin="round" stroke-width="1.147"/>
    <circle id="Ellipse_33" data-name="Ellipse 33" cx="5.052" cy="5.052" r="5.052" transform="translate(191.469 369.806)" stroke-width="1.147" stroke="#070707" stroke-linecap="round" stroke-linejoin="round" fill="none"/>
    <line id="Line_80" data-name="Line 80" x1="3.041" y2="3.13" transform="translate(215.426 376.578)" fill="none" stroke="#070707" stroke-linecap="round" stroke-linejoin="round" stroke-width="1.147"/>
    <line id="Line_81" data-name="Line 81" x1="3.041" y2="3.13" transform="translate(210.875 375.534)" fill="none" stroke="#070707" stroke-linecap="round" stroke-linejoin="round" stroke-width="1.147"/>
    <path id="Path_430" data-name="Path 430" d="M430.719,563.439l-15.646,63.443h27.666l18.323-61.336Z" transform="translate(-229.316 -269.46)" fill="#263238"/>
    <line id="Line_82" data-name="Line 82" y1="3.284" x2="5.252" transform="translate(196.521 305.226)" fill="none" stroke="#070707" stroke-linecap="round" stroke-linejoin="round" stroke-width="1.147"/>
    <line id="Line_83" data-name="Line 83" x2="27.607" transform="translate(189.131 346.329)" fill="none" stroke="#070707" stroke-linecap="round" stroke-linejoin="round" stroke-width="1.147"/>
    <path id="Path_431" data-name="Path 431" d="M234.988,445.446l11.169,54.692c1.645,6.492,10.067,11.091,16.762,11.25l47.887.991a3.381,3.381,0,0,1,3.3,3.38h0a3.38,3.38,0,0,1-3.381,3.381h-50.4c-5.959,0-12.531-2.367-16.744-6.581h0a22.469,22.469,0,0,1-6.264-12.128L229.1,446.691a3.014,3.014,0,0,1,1.623-3.2h0a3.014,3.014,0,0,1,4.268,1.955Z" transform="translate(-128.217 -204.097)" fill="#2e110a"/>
    <path id="Path_432" data-name="Path 432" d="M325.361,640.84l-30.074-96.316a19.446,19.446,0,0,0-18.535-13.563h0A19.446,19.446,0,0,0,258.1,544.893L230.2,640.84" transform="translate(-128.839 -251.808)" fill="none" stroke="#070707" stroke-miterlimit="10" stroke-width="3.44"/>
    <line id="Line_84" data-name="Line 84" x2="275.391" transform="translate(47.092 389.13)" fill="none" stroke="#494949" stroke-miterlimit="10" stroke-width="2.05"/>
    <path id="Path_433" data-name="Path 433" d="M133.868,298.129H79.184a1.758,1.758,0,0,1-1.758-1.758h0a1.758,1.758,0,0,1,1.758-1.758h54.684a1.758,1.758,0,0,1,1.758,1.758h0a1.758,1.758,0,0,1-1.758,1.758Z" transform="translate(-45.81 -123.357)" fill="#34507a"/>
    <path id="Path_434" data-name="Path 434" d="M689.144,238.931H672.985a1.758,1.758,0,0,1-1.758-1.758h0a1.758,1.758,0,0,1,1.758-1.758h16.159a1.758,1.758,0,0,1,1.758,1.758h0A1.758,1.758,0,0,1,689.144,238.931Z" transform="translate(-368.531 -91.184)" fill="#34507a"/>
    <rect id="Rectangle_372" data-name="Rectangle 372" width="5.439" height="5.268" rx="1.774" transform="translate(165.872 125.722)" fill="#34507a"/>
    <path id="Path_435" data-name="Path 435" d="M498.874,375.028h3.82a.81.81,0,0,1,.81.81v3.649a.81.81,0,0,1-.81.81h-3.82a.81.81,0,0,1-.81-.81v-3.649a.81.81,0,0,1,.81-.81Z" transform="translate(-274.42 -167.061)" fill="#34507a"/>
    <path id="Path_436" data-name="Path 436" d="M157.649,143.019h44.444a1.511,1.511,0,0,1,1.511,1.511v41.895a1.511,1.511,0,0,1-1.511,1.511h-43.5a2.453,2.453,0,0,1-2.453-2.453V144.53a1.511,1.511,0,0,1,1.511-1.511Z" transform="translate(-88.589 -40.968)" fill="#879ec6"/>
    <path id="Path_437" data-name="Path 437" d="M193.8,174.035a9.124,9.124,0,1,1,9.124,9.124A9.124,9.124,0,0,1,193.8,174.035Zm2.675,0a6.449,6.449,0,1,0,6.449-6.449,6.449,6.449,0,0,0-6.449,6.449Z" transform="translate(-109.058 -52.866)" fill="#f1f1f1"/>
    <rect id="Rectangle_373" data-name="Rectangle 373" width="3.809" height="2.067" transform="translate(84.733 128.862) rotate(-45)" fill="#f1f1f1"/>
    <rect id="Rectangle_374" data-name="Rectangle 374" width="10.434" height="4.572" rx="1.936" transform="translate(76.993 134.831) rotate(-45)" fill="#f1f1f1"/>
    <path id="Path_438" data-name="Path 438" d="M562.274,323.169h61.309a1.468,1.468,0,0,1,1.468,1.468v17.68a1.468,1.468,0,0,1-1.469,1.468H562.274a1.468,1.468,0,0,1-1.468-1.468V324.638a1.468,1.468,0,0,1,1.469-1.469Z" transform="translate(-308.519 -138.877)" fill="#99b2d6"/>
    <path id="Path_439" data-name="Path 439" d="M581.02,360.675v10.272l11.92-10.272Z" transform="translate(-319.505 -159.261)" fill="#99b2d6"/>
    <line id="Line_85" data-name="Line 85" x2="45.292" transform="translate(261.515 191.916)" fill="none" stroke="#070707" stroke-linecap="round" stroke-linejoin="round" stroke-width="1.212"/>
    <line id="Line_86" data-name="Line 86" x2="14.103" transform="translate(261.515 197.286)" fill="none" stroke="#070707" stroke-linecap="round" stroke-linejoin="round" stroke-width="1.212"/>
    <path id="Path_440" data-name="Path 440" d="M146.651,406.772H107.178a3.667,3.667,0,0,1-3.667-3.667V366.77a2.259,2.259,0,0,1,2.259-2.259h40.881a2.259,2.259,0,0,1,2.259,2.259v37.744a2.259,2.259,0,0,1-2.259,2.259Z" transform="translate(-59.986 -161.345)" fill="#568cdb"/>
    <rect id="Rectangle_375" data-name="Rectangle 375" width="62.869" height="62.869" rx="5.692" transform="translate(216.34 92.896)" fill="#5888dd"/>
    <path id="Path_441" data-name="Path 441" d="M535.657,179.144a13.422,13.422,0,0,1,.681-4.754,7.435,7.435,0,0,1,2.207-3.021,14.668,14.668,0,0,0,2.32-2.341,3.821,3.821,0,0,0,.794-2.341q0-3.114-2.681-3.114a2.488,2.488,0,0,0-2,.907,3.859,3.859,0,0,0-.8,2.454H529.2a8.314,8.314,0,0,1,2.6-6.424q2.558-2.3,7.177-2.3,4.6,0,7.126,2.124a7.456,7.456,0,0,1,2.526,6.043,7.038,7.038,0,0,1-.681,3.114,10.526,10.526,0,0,1-2.186,2.867l-2.372,2.207a5.579,5.579,0,0,0-1.4,1.99,7.885,7.885,0,0,0-.433,2.588Zm-.845,6.27a3.2,3.2,0,0,1,1.1-2.506,4.359,4.359,0,0,1,5.507,0,3.4,3.4,0,0,1,0,5.012,4.359,4.359,0,0,1-5.507,0,3.2,3.2,0,0,1-1.1-2.506Z" transform="translate(-291.342 -49.224)" fill="#f2f5f9"/>
    <path id="Path_442" data-name="Path 442" d="M659.14,402.873s70.367-30.778,111.812,34.011-76.369,109.841-68.432,50.927c4.732-35.13,95.171-40,109.28,33.951,10.323,54.109,10.181,170.665,69.6,207.8" transform="translate(-361.962 -171.793)" fill="none" stroke="#568cdb" stroke-miterlimit="10" stroke-width="6"/>
    <path id="Path_443" data-name="Path 443" d="M27.066,37.67,20.763,0,0,10.722Z" transform="matrix(0.839, -0.545, 0.545, 0.839, 501.377, 554.773)" fill="#568cdb"/>
    <path id="Path_444" data-name="Path 444" d="M113.254,380.113a3.174,3.174,0,0,1-1.038,2.194,3.54,3.54,0,0,1-2.408.788,3.423,3.423,0,0,1-1.85-.5,3.267,3.267,0,0,1-1.234-1.415,5.108,5.108,0,0,1-.452-2.13v-.821a5.142,5.142,0,0,1,.44-2.19,3.319,3.319,0,0,1,1.264-1.461,3.524,3.524,0,0,1,1.9-.513,3.4,3.4,0,0,1,2.341.788,3.29,3.29,0,0,1,1.032,2.23h-1.521a2.172,2.172,0,0,0-.552-1.367,1.824,1.824,0,0,0-1.3-.419,1.784,1.784,0,0,0-1.53.728,3.637,3.637,0,0,0-.546,2.135v.779a3.86,3.86,0,0,0,.51,2.175,1.692,1.692,0,0,0,1.494.749,1.972,1.972,0,0,0,1.352-.4,2.107,2.107,0,0,0,.574-1.346Z" transform="translate(-61.487 -166.536)" fill="#fff"/>
    <path id="Path_445" data-name="Path 445" d="M125.664,376.73a2.3,2.3,0,0,1,1.817-.833q2.088,0,2.118,2.384v4.266h-1.466v-4.212a1.289,1.289,0,0,0-.293-.957,1.2,1.2,0,0,0-.86-.28,1.413,1.413,0,0,0-1.316.784v4.665H124.2v-9.27h1.466Z" transform="translate(-71.23 -166.11)" fill="#fff"/>
    <path id="Path_446" data-name="Path 446" d="M142.927,385.66a2.254,2.254,0,0,1-.169-.609,2.466,2.466,0,0,1-3.319.169,1.8,1.8,0,0,1-.622-1.388,1.854,1.854,0,0,1,.775-1.6,3.758,3.758,0,0,1,2.218-.558h.9v-.429a1.143,1.143,0,0,0-.284-.811,1.124,1.124,0,0,0-.863-.3,1.291,1.291,0,0,0-.821.25.775.775,0,0,0-.32.637h-1.467a1.626,1.626,0,0,1,.356-1,2.37,2.37,0,0,1,.969-.733,3.4,3.4,0,0,1,1.367-.266,2.74,2.74,0,0,1,1.829.577,2.055,2.055,0,0,1,.7,1.62v2.945a3.339,3.339,0,0,0,.247,1.406v.1Zm-1.611-1.056a1.668,1.668,0,0,0,.818-.211,1.414,1.414,0,0,0,.577-.567v-1.231h-.791a2.161,2.161,0,0,0-1.225.284.919.919,0,0,0-.41.8.857.857,0,0,0,.28.673,1.088,1.088,0,0,0,.751.25Z" transform="translate(-79.173 -169.223)" fill="#fff"/>
    <path id="Path_447" data-name="Path 447" d="M159.636,382.465a3.887,3.887,0,0,1-.688,2.417,2.389,2.389,0,0,1-3.566.2v3.1h-1.466v-9.04h1.352l.06.664a2.154,2.154,0,0,1,1.756-.785,2.226,2.226,0,0,1,1.874.89,3.991,3.991,0,0,1,.679,2.471Zm-1.46-.127a2.724,2.724,0,0,0-.389-1.551,1.266,1.266,0,0,0-1.113-.573,1.35,1.35,0,0,0-1.292.742v2.9a1.362,1.362,0,0,0,1.3.76,1.264,1.264,0,0,0,1.095-.564,3,3,0,0,0,.4-1.711Z" transform="translate(-87.381 -169.226)" fill="#fff"/>
    <path id="Path_448" data-name="Path 448" d="M170.164,375.8v1.587h1.153v1.086h-1.153v3.645a.8.8,0,0,0,.148.54.684.684,0,0,0,.528.166,2.26,2.26,0,0,0,.513-.06V383.9a3.62,3.62,0,0,1-.966.139q-1.69,0-1.69-1.865v-3.7h-1.074V377.39H168.7V375.8Z" transform="translate(-94.831 -167.482)" fill="#fff"/>
    <path id="Path_449" data-name="Path 449" d="M180.738,385.781a3.034,3.034,0,0,1-2.26-.878,3.185,3.185,0,0,1-.866-2.338v-.181a3.92,3.92,0,0,1,.377-1.747,2.87,2.87,0,0,1,1.059-1.2,2.8,2.8,0,0,1,1.521-.429,2.563,2.563,0,0,1,2.061.851,3.6,3.6,0,0,1,.727,2.408v.592h-4.267a1.96,1.96,0,0,0,.54,1.279,1.621,1.621,0,0,0,1.192.471,1.986,1.986,0,0,0,1.641-.815l.79.754a2.64,2.64,0,0,1-1.047.908A3.281,3.281,0,0,1,180.738,385.781Zm-.175-5.594a1.234,1.234,0,0,0-.974.422,2.188,2.188,0,0,0-.474,1.177h2.794v-.109a1.784,1.784,0,0,0-.393-1.113,1.226,1.226,0,0,0-.953-.377Z" transform="translate(-100.257 -169.223)" fill="#fff"/>
    <path id="Path_450" data-name="Path 450" d="M196.109,380.475a3.626,3.626,0,0,0-.6-.048,1.345,1.345,0,0,0-1.358.773v4.466h-1.466v-6.529h1.4l.036.73a1.652,1.652,0,0,1,1.472-.851,1.367,1.367,0,0,1,.519.085Z" transform="translate(-108.452 -169.228)" fill="#fff"/>
    <path id="Path_451" data-name="Path 451" d="M138.52,414.506q0,4.617-1.728,6.963a6.1,6.1,0,0,1-5.257,2.345,6.183,6.183,0,0,1-5.228-2.287q-1.757-2.287-1.8-6.772V411.05q0-4.618,1.728-6.926a7.2,7.2,0,0,1,10.514-.059q1.728,2.25,1.772,6.735Zm-3.573-4a9.06,9.06,0,0,0-.824-4.419,3.147,3.147,0,0,0-5.191-.073,8.372,8.372,0,0,0-.867,4.154v4.853a9.293,9.293,0,0,0,.838,4.47,2.816,2.816,0,0,0,2.632,1.471,2.766,2.766,0,0,0,2.544-1.36,8.745,8.745,0,0,0,.868-4.257Z" transform="translate(-71.397 -181.619)" fill="#fff"/>
    <path id="Path_452" data-name="Path 452" d="M172.838,423.782H169.28v-17.2l-5.25,1.789v-3l8.353-3.073h.456Z" transform="translate(-92.878 -181.882)" fill="#fff"/>
  </g>
</svg>
