<svg xmlns="http://www.w3.org/2000/svg" xmlns:xlink="http://www.w3.org/1999/xlink" width="243" height="239" viewBox="0 0 243 239">
  <defs>
    <radialGradient id="radial-gradient" cx="0.5" cy="0.5" r="0.453" gradientTransform="translate(0 -0.017) scale(1 1.034)" gradientUnits="objectBoundingBox">
      <stop offset="0" stop-color="#fff" stop-opacity="0"/>
      <stop offset="1" stop-color="#fff"/>
    </radialGradient>
  </defs>
  <g id="class_sylabus_compited" data-name="class sylabus compited" transform="translate(-258.712 432.896)">
    <g id="OBJECTS" transform="translate(258.712 -432.475)">
      <path id="Path_522" data-name="Path 522" d="M270.812,244.021V237.73l106.126-10.854v28Z" transform="translate(-138.945 -121.527)" fill="#c4eeed"/>
      <path id="Path_523" data-name="Path 523" d="M106.838,237.73v6.291L.712,254.875v-28Z" transform="translate(-0.712 -121.527)" fill="#c4eeed"/>
      <path id="Path_525" data-name="Path 525" d="M134.542,269.636l4.448,4.448L71.623,356.8,51.824,337Z" transform="translate(-26.87 -143.411)" fill="#c4eeed"/>
      <path id="Path_527" data-name="Path 527" d="M138.99,145.643l-4.448,4.448L51.824,82.724l19.8-19.8Z" transform="translate(-26.87 -37.62)" fill="#c4eeed"/>
      <path id="Path_520" data-name="Path 520" d="M232.919,117.939h-6.291L215.774,11.813h28Z" transform="translate(-110.778 -11.461)" fill="#c4eeed"/>
      <path id="Path_521" data-name="Path 521" d="M226.628,281.913h6.291l10.854,106.126h-28Z" transform="translate(-110.778 -149.695)" fill="#c4eeed"/>
      <path id="Path_524" data-name="Path 524" d="M262.983,150.091l-4.448-4.448L325.9,62.926l19.8,19.8Z" transform="translate(-132.662 -37.62)" fill="#c4eeed"/>
      <path id="Path_526" data-name="Path 526" d="M258.535,274.084l4.448-4.448L345.7,337l-19.8,19.8Z" transform="translate(-132.662 -143.411)" fill="#c4eeed"/>
      <rect id="Rectangle_404" data-name="Rectangle 404" width="243" height="239" rx="119.5" transform="translate(0 -0.421)" fill="url(#radial-gradient)"/>
      <path id="Path_528" data-name="Path 528" d="M333.381,89.155c-.552.718-.894,1.583-1.478,2.275-1.18,1.4-3.215,1.926-4.22,3.455-3.354,5.1.509,5.981,1.171,9.074.476,2.223-.72,4.881-.21,7.1.531,2.307,2.879,4.046,4.952,5.189,1.215.669,2.684,1.118,3.381,2.317.423.727.481,1.62.892,2.354.754,1.346,2.439,1.8,3.946,2.128,5.153,1.122,11.335,1.957,14.986-1.847a19.486,19.486,0,0,1,3.461-3.412c.759-.5,2.876-.453,3.641-.944,2.09-1.343,1.235-2.793,1.955-3.672,1.981-2.417,4.52-2.048,7.586-1.439,3.3.656,6.992.9,9.761-1.012a6.765,6.765,0,0,0,2.934-5.98A5.826,5.826,0,0,0,382,99.665c-2.6-.678-5.5.645-7.967-.411-3.415-1.464-4.066-6.625-7.547-7.922-3.179-1.184-6.753,1.617-10,.645-2.334-.7-3.876-3.192-6.276-3.619-1.887-.336-3.69.776-5.521.546-1.351-.169-1.815-.926-2.98-1.379C339.014,86.48,335.307,86.649,333.381,89.155Z" transform="translate(-228.386 -49.9)" fill="#263238"/>
      <path id="Path_529" data-name="Path 529" d="M393.694,419.666a28.963,28.963,0,0,1-2.494,6.2c-1.227,2.064-1.826,4.787-.539,5.663,1.105.753,2.894-.742,4.444-2.495,1.575-1.78,8.7-10.18,7.826-11.663-2.532-2.466-3.519-3.092-5.572-5.318-.292-.316-6.226.935-5.012,4.441C393.289,417.846,393.77,418.627,393.694,419.666Z" transform="translate(-260.94 -216.276)" fill="#1c1a1a"/>
      <path id="Path_530" data-name="Path 530" d="M389.356,360.492a1.466,1.466,0,0,1-1.653.25c-.547-.237-2.423-2.406-4.513-6.182a5.342,5.342,0,0,0-3.506-2.966,5.741,5.741,0,0,0-2.028-.4c-2.163.022-5.079-4.354-3.386-6.056,1.229-1.235,1.921-.418,3.386-.146,4.724.876,6.477-.532,7.151-.135,1.165.685,1.882,4.724,2.225,6C387.841,353.864,390.272,359.46,389.356,360.492Z" transform="translate(-252.661 -181.71)" fill="#1c1a1a"/>
      <path id="Path_531" data-name="Path 531" d="M289.933,297.612c-.438,1.492-.777,3.19.011,4.531,1.014,1.725,3.367,1.791,5.34,2.124,11.191,1.888,27.67,5.285,39.232,5.259.295-1.922-.295-4.28,0-6.2-7.524-2.381-22.48-6.2-30.265-8.531,8.4-3.168,29.989-25.444,28.591-26.956a14.506,14.506,0,0,0-5.185-3.27c-3.75-1.571-6.687-2.223-10.327-.412-3.182,1.583-9.272,1.325-9.272,1.325-1.712,2.424-6,8.994-7.632,11.561C295.936,284.093,292.311,289.521,289.933,297.612Z" transform="translate(-209.521 -140.046)" fill="#7fb1cc"/>
      <path id="Path_532" data-name="Path 532" d="M362.633,274.583a70.369,70.369,0,0,1-9.521,17.5c-2.751,3.691-5.891,7.151-7.913,11.287-.291.6,12.856,18.66,20.211,27.79A16.111,16.111,0,0,1,360.4,335.6c-7.33-9.511-28.971-25.421-28.7-28.81.539-6.722,2.633-14.894,3.909-20.872a59.312,59.312,0,0,1,4.751-13.723c-5.715-.843-13.187-10.932-12.83-11.384,1.244-1.573,2.569-4.253,3.134-4.521a7.181,7.181,0,0,1,4.4.066,23.125,23.125,0,0,0,12.756.565c3.357-.8,6.935-3.789,10.5-2.774C366.294,256.413,364.693,269.045,362.633,274.583Z" transform="translate(-228.993 -135.376)" fill="#8cbddd"/>
      <path id="Path_533" data-name="Path 533" d="M350.5,282.774c-.4-.965-.851-1.9-1.167-2.9a11.259,11.259,0,0,0-.8-2.688.264.264,0,0,0-.477.062,5.47,5.47,0,0,0,.466,2.85,12.237,12.237,0,0,0,1.328,2.947c.209.318.817.12.655-.276Z" transform="translate(-239.465 -147.213)" fill="#7caac4"/>
      <path id="Path_534" data-name="Path 534" d="M357.167,288.736l1.924-.826a5.819,5.819,0,0,0,1.643-.836.157.157,0,0,0-.11-.266,5.566,5.566,0,0,0-1.668.6l-2.044.9c-.3.131-.04.563.255.437Z" transform="translate(-243.969 -152.199)" fill="#7caac4"/>
      <path id="Path_535" data-name="Path 535" d="M356.031,292.449c1.8.353,3.612,1.115,5.433,1.283a.157.157,0,0,0,.079-.29,16.315,16.315,0,0,0-5.44-1.252C355.936,292.166,355.857,292.415,356.031,292.449Z" transform="translate(-243.536 -154.953)" fill="#7caac4"/>
      <path id="Path_536" data-name="Path 536" d="M331.825,241.051c4.508,3.115,10.184,4.19,15.659,3.962s10.821-1.671,16.076-3.223a21.555,21.555,0,0,1-5.609-15.91c-.076,1.1-14,.507-15.375.387s-12.358-2.619-12.715-2c-.662,1.141,3.362,5.206,3.831,6.31C334.862,233.326,334.121,236.63,331.825,241.051Z" transform="translate(-230.155 -120.141)" fill="#ffc3bd"/>
      <path id="Path_537" data-name="Path 537" d="M290.9,84.479c6.278-3.058,11.609-7.9,17.259-12,.881-.64,4.727-2.515,3.347-4.895-1.71-2.95-2.606-5.3.32-7.459,1.052-.539,0-1.888-1.97-1.264a6.3,6.3,0,0,0-2.68,3.291c-.79,2.368,1.217,4.08-.5,5.951a15.014,15.014,0,0,1-3.439,2.278c-4.228,2.117-20.022,6.329-20.819,10.576-.424,2.26,1.318,9.649,3.695,13.543,2.06,3.376,5.56,9.15,9.439,9.918,1.216-.831,3.362-6.911,3.112-8.65-.231-1.608-1.824-2.655-3.045-3.62C292.443,89.634,290.585,84.633,290.9,84.479Z" transform="translate(-205.88 -35.455)" fill="#ffc3bd"/>
      <path id="Path_538" data-name="Path 538" d="M441.7,121.09c-4.015-4.893-4.884-11.9-8.9-16.8-1.4-1.71-3.425-2.734-3.169-4.931.33-2.818,2.562-2.948,2.629-5.78a5.4,5.4,0,0,0-1.146-2.813c-.542-.931-.315-1.637.607-1.435a5.02,5.02,0,0,1,3.494,5.054c-.4,2.764-1.1,2.667-.347,4.973s3.1,4.155,4.67,6c4.638,5.462,7.573,8.362,10.894,14.711a7.127,7.127,0,0,1-.307,7.618c-1.1,1.354-5.685,2.048-9.3,2.562-6.242.887-8.192,1.387-14.495,1.551-1.739-3.307-1.259-9.192,3.1-10.248C430.427,121.321,442.087,121.556,441.7,121.09Z" transform="translate(-279.084 -51.119)" fill="#ffc3bd"/>
      <path id="Path_539" data-name="Path 539" d="M310.955,133.512c-4.3-2.969-5.072-9.791-10.249-10.524-1.144-.162-2.891-.152-3.4,1.105-1.32,3.27-3.653,3.458-5.163,4.693-1.483,1.214-2.562,2.427-1.884,4.007a26.8,26.8,0,0,0,2.086,3.072c3.169,5.259,6.059,6.872,11.528,9.051,1.82.725,3.374,1.728,3.553,2.4a3.8,3.8,0,0,1-.549,2.472,25.624,25.624,0,0,0-1.348,17.517,50.8,50.8,0,0,0,3.733,8.775,3.783,3.783,0,0,0,.891,1.289,3.728,3.728,0,0,0,1.793.638,106.967,106.967,0,0,0,26.852,1.067,5.372,5.372,0,0,0,1.973-.433,4.4,4.4,0,0,0,2.29-4.552c-2.176-9.845,1.473-13.819,3.917-20.243a2.029,2.029,0,0,1,2.579-1.583c5.017.317,14.348,1.509,18.834-.761,1.939-.981-.092-3.019-.067-5.191.009-.835.686-2.449.438-3.247-.419-1.35-1.435-2.078-1.854-3.428-.3-.975.247-1.6-.648-2.094a3.989,3.989,0,0,0-2.168-.277c-5.847.354-11.718.85-17.552.322-6.49-.587-10.536-2.178-17.1-1.794-2.288.134-5.079.49-7.44.472C318.8,136.246,313.691,135.4,310.955,133.512Z" transform="translate(-209.82 -68.322)" fill="#4781ea"/>
      <path id="Path_540" data-name="Path 540" d="M327.634,184.34c.541,1.652,1.19,3.686,2.452,4.946,1.61,1.608,4.678,1.882,6.648,2.869,4.367,2.19,7.875,4.519,13.007,3.892.357-.044.374-.6,0-.573-4.654.354-7.918-1.243-11.887-3.4a25.068,25.068,0,0,0-4.6-1.94c-3.1-.957-4.175-3.122-5.235-5.9-.089-.234-.463-.141-.382.105Z" transform="translate(-229.047 -99.635)" fill="#416baa"/>
      <path id="Path_541" data-name="Path 541" d="M340.834,211.31a21.5,21.5,0,0,0,8.717,4.711c2.741.8,6.59,2.047,9.184.34.184-.121.073-.441-.156-.37-5.534,1.73-13.2-1.352-17.317-5.11-.288-.263-.718.164-.429.429Z" transform="translate(-235.759 -113.299)" fill="#416baa"/>
      <path id="Path_542" data-name="Path 542" d="M353.727,177.427a11.834,11.834,0,0,0,11.638,2.441c3.569-1.3,8.51-2.644,9.438-6.909a.249.249,0,0,0-.479-.132c-1.528,4-5.388,5.2-9.081,6.6a11.536,11.536,0,0,1-11.283-2.229c-.16-.135-.393.094-.232.232Z" transform="translate(-242.379 -93.779)" fill="#416baa"/>
      <path id="Path_543" data-name="Path 543" d="M327.917,162.928c.76-.9,1.889-1.391,2.4-2.5a8.69,8.69,0,0,0,.708-3.825.186.186,0,0,0-.364-.049c-.5,1.246-.291,2.73-.972,3.925-.513.9-1.524,1.338-2.069,2.218-.111.179.157.4.3.23Z" transform="translate(-229.032 -85.472)" fill="#416baa"/>
      <path id="Path_544" data-name="Path 544" d="M326.356,164.8a12.6,12.6,0,0,0,.62-2.06,3.809,3.809,0,0,0,.122-1.7.145.145,0,0,0-.276,0,8.789,8.789,0,0,0-.292,1.852,16.2,16.2,0,0,1-.426,1.836c-.048.164.193.223.252.069Z" transform="translate(-228.267 -87.782)" fill="#416baa"/>
      <path id="Path_545" data-name="Path 545" d="M323.313,164.009a9.408,9.408,0,0,1-.427-1.408c-.08-.371-.055-.795-.392-1.02a.2.2,0,0,0-.24.031c-.269.306-.129.719-.043,1.085a9.287,9.287,0,0,0,.492,1.48c.154.365.758.217.609-.168Z" transform="translate(-226.219 -88.097)" fill="#416baa"/>
      <path id="Path_546" data-name="Path 546" d="M407.041,174.066a3.221,3.221,0,0,0,.136-2.734,5.937,5.937,0,0,1-.162-2.5c.108-.561.361-1.047.425-1.617.025-.222-.259-.274-.4-.164a3.068,3.068,0,0,0-.808,2.5c.031,1.383,1.212,3.061.463,4.316-.132.221.2.411.342.2Z" transform="translate(-269.279 -90.882)" fill="#416baa"/>
      <path id="Path_547" data-name="Path 547" d="M410.411,175.567c.116-.556.254-1.108.41-1.655a3.947,3.947,0,0,0,.363-1.485.192.192,0,0,0-.324-.134,2.876,2.876,0,0,0-.611,1.462,13.709,13.709,0,0,0-.327,1.746c-.036.277.432.339.488.066Z" transform="translate(-271.166 -93.566)" fill="#416baa"/>
      <path id="Path_548" data-name="Path 548" d="M412.227,178.342a16.643,16.643,0,0,1,1.7-.667,3.408,3.408,0,0,0,1.254-.55.187.187,0,0,0-.082-.31,2.865,2.865,0,0,0-1.535.336c-.545.22-1.076.468-1.6.739C411.66,178.049,411.926,178.479,412.227,178.342Z" transform="translate(-272.143 -95.904)" fill="#416baa"/>
      <path id="Path_549" data-name="Path 549" d="M342.05,151.661c-2.5,2.068-2.816,4.505.069,6.193,1.452.85,2.922,1.662,4.337,2.575,1.5.967,2.782,2.265,4.587,2.59,3.646.656,5.657-1.106,7.943-3.624,1.409-1.552,4.568-5.336,3.184-7.561a.236.236,0,0,0-.408.238c1.146,2.242-2.283,6.041-3.616,7.461-2.146,2.286-4.68,3.86-7.927,2.564-1.859-.742-3.581-2.339-5.315-3.383-.771-.465-1.561-.9-2.334-1.357-2.37-1.41-1.736-3.547-.115-5.292a.287.287,0,0,0-.405-.405Z" transform="translate(-235.415 -82.994)" fill="#416baa"/>
      <path id="Path_550" data-name="Path 550" d="M331.31,221.788c3.223,1.688,6.329,3.492,9.484,5.293.264.151.593-.236.337-.437a32.243,32.243,0,0,0-9.714-5.111.14.14,0,0,0-.107.254Z" transform="translate(-230.9 -118.791)" fill="#416baa"/>
      <path id="Path_551" data-name="Path 551" d="M359.96,251.6a1.368,1.368,0,0,0-.007,1.282,1.07,1.07,0,0,0,1.059.663.344.344,0,0,0,.172-.636c-.354-.219-.68-.574-.531-1.017a.381.381,0,0,0-.693-.292Z" transform="translate(-245.513 -134.088)" fill="#e2b1af"/>
      <path id="Path_552" data-name="Path 552" d="M349.671,136.817c-1.082.694-2.372.277-3.438.995-.6.407-2.113,1.513-2.125,2.241-.036,2.111,2.491,2.918,4.42,3.775s3.75,3.977,7.753,2.427a8.019,8.019,0,0,0,4.568-3.779,13.773,13.773,0,0,1,.856-1.693c.293-.391.721-.733.769-1.219a2.84,2.84,0,0,0-.4-1.736c-1.243-1.283-3.217-1.133-4.969-1.483-1.185-3.322-2.223-7.143-3.408-10.465-.862-2.418-6.19-2.649-6.875.034C346.016,129.1,349.338,133.527,349.671,136.817Z" transform="translate(-237.484 -68.869)" fill="#ffc3bd"/>
      <path id="Path_553" data-name="Path 553" d="M339.379,109.525q1.766,2.681,3.743,5.214a20.916,20.916,0,0,0,4.622,4.655,7.545,7.545,0,0,0,6.185,1c3.679-1.08,4.619-9.179,3.266-13.3a15.43,15.43,0,0,0-8.549-9.274c-2.162-.911-4.832-1.25-6.724.138-1.832,1.345-2.337,3.819-2.7,6.062C338.878,106.084,338.137,107.639,339.379,109.525Z" transform="translate(-234.709 -55.07)" fill="#ffc3bd"/>
      <path id="Path_554" data-name="Path 554" d="M338.851,105.567a6.933,6.933,0,0,1,.363-4.787,4.865,4.865,0,0,1,4.275-2.513c2.3.147,4.209,2.684,6.44,2.1.465-.122.887-.375,1.352-.5a4.526,4.526,0,0,1,3.242.738,8.134,8.134,0,0,0,3.123,1.3,2.209,2.209,0,0,0,2.489-1.766,3.161,3.161,0,0,0-1.367-2.259,24.252,24.252,0,0,0-4.687-3.585,8.16,8.16,0,0,0-5.705-.948,3.493,3.493,0,0,1-1.78.212,3.994,3.994,0,0,1-.986-.565,5.123,5.123,0,0,0-4.531-.309,8.851,8.851,0,0,0-3.658,2.88,14.1,14.1,0,0,0-2.743,5.892,8.84,8.84,0,0,0-.2,2.172,12.887,12.887,0,0,0,.594,2.921c.509,1.784,1.656,5.187,4.1,4.373C340.967,110.327,339.477,107.389,338.851,105.567Z" transform="translate(-232.552 -52.653)" fill="#263238"/>
      <path id="Path_555" data-name="Path 555" d="M342.6,122.633c-.682-1.658-1.418-3.2-3.06-2.411-1.2.575-1,2.673-.2,3.717s1.142,2.238,2.369,2.16C342.881,126.024,342.6,122.633,342.6,122.633Z" transform="translate(-234.709 -66.835)" fill="#ffc3bd"/>
      <path id="Path_556" data-name="Path 556" d="M362.106,118.788a3.612,3.612,0,0,0,1.59,3.1c.256.171.74.31.791.679.077.551-.782,1.015-1.167.936-.339-.07-.484.45-.143.52a1.519,1.519,0,0,0,1.84-1.548c-.046-.514-.408-.661-.81-.9a3.136,3.136,0,0,1-1.562-2.78.27.27,0,0,0-.539,0Z" transform="translate(-246.694 -66.076)" fill="#263238"/>
      <path id="Path_557" data-name="Path 557" d="M348.092,114.051a3.329,3.329,0,0,1,1.464-1.323,5.917,5.917,0,0,1,1.94-.293c.2-.026.326-.3.112-.412a2.673,2.673,0,0,0-2.162.131,3.43,3.43,0,0,0-1.746,1.667.228.228,0,0,0,.393.229Z" transform="translate(-239.308 -62.655)" fill="#263238"/>
      <path id="Path_558" data-name="Path 558" d="M362.925,109.754a2.612,2.612,0,0,1,1.543-1.038c.6-.108,1.014.226,1.57.286.174.019.237-.187.18-.314-.277-.619-1.289-.661-1.866-.537a3.163,3.163,0,0,0-1.825,1.3C362.357,109.675,362.746,109.978,362.925,109.754Z" transform="translate(-246.889 -60.737)" fill="#263238"/>
      <path id="Path_559" data-name="Path 559" d="M341.359,122.606c-.913-.158-1.077.773-.908,1.465a5.729,5.729,0,0,0,.609,1.473c.2.354.438.827.883.893.4.059.587-.524.172-.624-.562-.136-1.518-2.661-.817-2.751.232-.03.345-.406.062-.455Z" transform="translate(-235.582 -68.155)" fill="#d67051"/>
      <path id="Path_560" data-name="Path 560" d="M344.561,131.06a.312.312,0,1,0-.3-.312.312.312,0,0,0,.3.312Z" transform="translate(-237.562 -72.171)" fill="#fff"/>
      <path id="Path_561" data-name="Path 561" d="M352.114,128.376a3.494,3.494,0,0,0,1.091-.3,1.081,1.081,0,0,0,.3-1.591,1.093,1.093,0,0,0-1.616-.11c.232-.184-.3.118-.047.02a1.025,1.025,0,0,0-.724,1.11,1,1,0,0,0,.993.877Z" transform="translate(-241.069 -69.933)" fill="#ef7052"/>
      <path id="Path_562" data-name="Path 562" d="M370.4,121.555a1.163,1.163,0,0,0,.849,1.07,1.347,1.347,0,0,0,1.2-.118,1.123,1.123,0,0,0-.567-2.093C371.257,120.4,370.335,120.815,370.4,121.555Z" transform="translate(-250.936 -67.042)" fill="#ef7052"/>
      <path id="Path_563" data-name="Path 563" d="M352.3,121.184c-.026-.517-.062-1.284.411-1.626a.652.652,0,0,1,.762.009.886.886,0,0,1,.381.7c.023.162.265.138.3,0,.217-.761-.756-1.395-1.429-1.252-1,.211-.929,1.456-.8,2.217.035.211.383.162.372-.05Z" transform="translate(-241.45 -66.316)" fill="#263238"/>
      <path id="Path_564" data-name="Path 564" d="M366.827,115.932a.991.991,0,0,1,.87-1.229c.614-.01.773.486.986.937a.179.179,0,0,0,.323-.042c.187-.74-.771-1.361-1.418-1.288A1.278,1.278,0,0,0,366.6,116a.12.12,0,0,0,.232-.064Z" transform="translate(-248.955 -63.915)" fill="#263238"/>
      <path id="Path_565" data-name="Path 565" d="M365.185,134.511a4,4,0,0,1-.156.836,1.268,1.268,0,0,1-.491.76,1.18,1.18,0,0,1-.593.146,2.672,2.672,0,0,1-1.758-.744V135.5a2.871,2.871,0,0,1-.426-.458,6.033,6.033,0,0,1-.89-1.7,5.366,5.366,0,0,1-.151-.615,21.96,21.96,0,0,0,4-.68.27.27,0,0,1,.173-.005.281.281,0,0,1,.129.237c.016.1.032.2.049.3A7.785,7.785,0,0,1,365.185,134.511Z" transform="translate(-245.985 -72.986)" fill="#433b4c"/>
      <path id="Path_566" data-name="Path 566" d="M366.723,136.877a4.01,4.01,0,0,1-.156.836,1.268,1.268,0,0,1-.491.76,1.18,1.18,0,0,1-.593.146,2.671,2.671,0,0,1-1.758-.744v-.005A2.274,2.274,0,0,1,366.723,136.877Z" transform="translate(-247.523 -75.352)" fill="#f24664"/>
      <path id="Path_567" data-name="Path 567" d="M365.066,132.58a12.269,12.269,0,0,1-4.2.76,5.354,5.354,0,0,1-.151-.615,21.962,21.962,0,0,0,4-.68.27.27,0,0,1,.173-.005.281.281,0,0,1,.129.237C365.034,132.381,365.05,132.478,365.066,132.58Z" transform="translate(-245.985 -72.986)" fill="#fff"/>
      <path id="Path_568" data-name="Path 568" d="M378.285,98.849a5.9,5.9,0,0,0,5.34,2.21c1.051-.146,1.915-.8,2.93-1,2.734-.548,4.421,1.631,6.069,3.341,1.861,1.93,3.394,4.776,5.826,6.026a12.037,12.037,0,0,0,6.866,1.061c.246-.041.185-.436-.058-.43-3.485.085-6.718-.632-9.037-3.363a44.982,44.982,0,0,0-5.5-5.784,4.582,4.582,0,0,0-3.523-1.443,21.877,21.877,0,0,0-2.906,1.042,5.567,5.567,0,0,1-5.757-1.908c-.149-.173-.4.078-.25.25Z" transform="translate(-254.953 -55.847)" fill="#a54652"/>
      <path id="Path_569" data-name="Path 569" d="M382.571,111.166a2.64,2.64,0,0,0,2.427.868,16.681,16.681,0,0,0,1.862-.525c2.693-.549,3.5.9,4.726,2.6,1.6,2.222,3.583,4.108,6.478,4.081a.282.282,0,0,0,0-.565,7.292,7.292,0,0,1-5.509-3.227,15.942,15.942,0,0,0-2.344-3.043c-2.218-1.757-5.435,1.363-7.287-.542-.224-.231-.567.116-.352.352Z" transform="translate(-257.134 -62.09)" fill="#a54652"/>
      <path id="Path_570" data-name="Path 570" d="M384.638,122.654a4.668,4.668,0,0,1,3.479,1.089c.67.581,1.133,1.358,1.829,1.912a5.5,5.5,0,0,0,3.5,1.128.22.22,0,0,0,.058-.43,12.714,12.714,0,0,1-2.85-.844,19.488,19.488,0,0,1-2.294-2.02,4.886,4.886,0,0,0-3.723-1.012C384.527,122.489,384.523,122.661,384.638,122.654Z" transform="translate(-258.183 -68.073)" fill="#a54652"/>
      <path id="Path_571" data-name="Path 571" d="M382.661,133.176c1.571-1.823,4.724,4.571,7.147,2.661.175-.138-.016-.414-.209-.359-2.392.674-3.355-1.953-5.133-2.873a1.484,1.484,0,0,0-2.09.351c-.116.168.15.376.285.22Z" transform="translate(-257.054 -73.143)" fill="#a54652"/>
      <path id="Path_572" data-name="Path 572" d="M379.616,142.473a7.662,7.662,0,0,1,2.072.463c.6.225,1.116.631,1.716.828.173.057.264-.163.164-.282-.855-1.012-2.7-1.293-3.951-1.322C379.413,142.157,379.418,142.457,379.616,142.473Z" transform="translate(-255.579 -78.172)" fill="#a54652"/>
      <path id="Path_573" data-name="Path 573" d="M340.552,102.752c1.382-3.792,5.779-4.049,8.665-2.25a6.2,6.2,0,0,0,3.792,1.389.19.19,0,0,0,0-.379c-2.158-.1-3-1.4-4.645-2.256a5.961,5.961,0,0,0-3.664-.137,5.291,5.291,0,0,0-4.383,3.569c-.049.151.182.211.236.065Z" transform="translate(-235.54 -56.03)" fill="#a54652"/>
      <path id="Path_574" data-name="Path 574" d="M342.851,94.96a5.885,5.885,0,0,1,5.157-2.022c2.64.276,2.428,1.046,4.1,1.874a7.365,7.365,0,0,0,4.334.39c.161-.024.112-.266-.037-.273a12.188,12.188,0,0,1-3.348-.243c-.931-.362-1.647-1.2-2.517-1.622a5.559,5.559,0,0,0-2.12-.55c-2.364-.2-4.312.325-5.8,2.218-.124.158.083.382.226.226Z" transform="translate(-236.705 -52.743)" fill="#a54652"/>
      <path id="Path_575" data-name="Path 575" d="M333.424,110.305c-1.566-.731-1.069-2.856-.926-4.212a.242.242,0,0,0-.41-.17,3.952,3.952,0,0,0-.4,3,2.392,2.392,0,0,0,1.511,1.9c.3.115.515-.386.221-.524Z" transform="translate(-231.072 -59.591)" fill="#a54652"/>
      <path id="Path_576" data-name="Path 576" d="M338.168,112.015a3.3,3.3,0,0,1-.3-.837,3.125,3.125,0,0,0-.161-.774c-.1-.206-.368-.115-.439.057a1.526,1.526,0,0,0,.066.922,3.872,3.872,0,0,0,.392.891.257.257,0,0,0,.444-.259Z" transform="translate(-233.961 -61.858)" fill="#a54652"/>
      <path id="Path_577" data-name="Path 577" d="M335.2,128.249c-.426,2.386.229,5.689,2.973,6.367a.14.14,0,0,0,.107-.254,5.34,5.34,0,0,1-2.78-6.029c.032-.2-.265-.281-.3-.083Z" transform="translate(-232.862 -70.994)" fill="#a54652"/>
      <path id="Path_578" data-name="Path 578" d="M340.456,133.437a6.408,6.408,0,0,0,1.5,2.723,4.1,4.1,0,0,0,2.482,1.515.179.179,0,0,0,.125-.3c-.629-.6-1.5-.873-2.146-1.5a6.5,6.5,0,0,1-1.593-2.534.19.19,0,0,0-.366.1Z" transform="translate(-235.612 -73.587)" fill="#a54652"/>
      <path id="Path_579" data-name="Path 579" d="M421.957,128.6a15.166,15.166,0,0,0,7.151,1.651c.189-.016.263-.315.048-.356a47.508,47.508,0,0,1-7.118-1.488C421.927,128.371,421.848,128.553,421.957,128.6Z" transform="translate(-277.299 -71.131)" fill="#a54652"/>
      <path id="Path_580" data-name="Path 580" d="M257.768,60.439c-1.338-1.333-2.37-2.479-2.426-4.459-.048-1.711.382-3.405.413-5.117a.848.848,0,0,0-1.7,0c-.04,2.213-.76,4.515-.236,6.712a8.756,8.756,0,0,0,2.745,4.063.848.848,0,0,0,1.2-1.2Z" transform="translate(-191.18 -31.027)" fill="#6290d3"/>
      <path id="Path_581" data-name="Path 581" d="M268.357,131.713c-.224.579-1.039,1.042-1.525,1.368-.6.4-1.234.764-1.854,1.14a.849.849,0,0,0,.856,1.464c1.472-.893,3.5-1.815,4.158-3.522C270.387,131.145,268.748,130.7,268.357,131.713Z" transform="translate(-196.78 -72.532)" fill="#6290d3"/>
      <path id="Path_582" data-name="Path 582" d="M205.213,115.116a2.567,2.567,0,0,0-.574,2.828c.571,1.068,1.425.933,2.371,1-.093.878-.738,1.8-.831,2.652a2.383,2.383,0,0,0,.7,2.067c.751.795,1.949-.406,1.2-1.2-.635-.672.241-2,.442-2.683a3.533,3.533,0,0,0,.113-1.8.829.829,0,0,0-.592-.592c-.771-.164-2.175.187-1.614-1.059.324-.72,1.942-2.059,2.712-1.331.793.749,1.994-.448,1.2-1.2C208.621,112.172,206.448,113.551,205.213,115.116Z" transform="translate(-165.988 -63.282)" fill="#6290d3"/>
      <path id="Path_583" data-name="Path 583" d="M480.581,72.991l.361.112a.78.78,0,0,0,.519-.027c.04.02.076.039.087.046q.126.086.032.023a1.632,1.632,0,0,1,.119.117.848.848,0,1,0,1.2-1.2,2.341,2.341,0,0,0-2.317-.707.856.856,0,0,0,0,1.635Z" transform="translate(-307.02 -41.898)" fill="#6290d3"/>
      <path id="Path_584" data-name="Path 584" d="M479.679,117.526a23.184,23.184,0,0,1-3.972,1.419,9.549,9.549,0,0,1,3.72-2.452.849.849,0,0,0-.451-1.636,9.784,9.784,0,0,0-3.4,2.084,6.694,6.694,0,0,0-2.281,2.393.86.86,0,0,0,.507,1.246,7.346,7.346,0,0,0,4.279-.608,9.579,9.579,0,0,0-1.264,1.437,6.626,6.626,0,0,0-1.106,3.311c.043,1.088,1.739,1.093,1.7,0-.107-2.731,3.386-3.872,3.341-6.377a.855.855,0,0,0-1.073-.818Z" transform="translate(-303.546 -64.183)" fill="#6290d3"/>
      <path id="Path_585" data-name="Path 585" d="M510.936,180.059v-4.146a.848.848,0,0,0-1.7,0v4.145a.848.848,0,0,0,1.7,0Z" transform="translate(-321.996 -95.026)" fill="#6290d3"/>
      <path id="Path_586" data-name="Path 586" d="M522.431,213.632a1.766,1.766,0,0,0-1.353.625.873.873,0,0,0,0,1.2.854.854,0,0,0,1.2,0,1.085,1.085,0,0,1,.107-.122l0,0,.012,0h.032a.848.848,0,1,0,0-1.7Z" transform="translate(-327.932 -114.749)" fill="#6290d3"/>
      <path id="Path_587" data-name="Path 587" d="M194.948,237.6a1.856,1.856,0,0,0-.945-.922,6.1,6.1,0,0,0-1.485-.334,11.649,11.649,0,0,0-1.974-.328.848.848,0,0,0,0,1.7,15.656,15.656,0,0,1,2,.345c.457.07,1.02.045.93.645-.109.723.819,1.569,1.417.825a8.038,8.038,0,0,0,.53-.727.791.791,0,0,0-.473-1.2Z" transform="translate(-158.473 -126.206)" fill="#6290d3"/>
      <path id="Path_588" data-name="Path 588" d="M260.14,198.442l-.754.754a.848.848,0,1,0,1.2,1.2l.754-.754a.848.848,0,0,0-1.2-1.2Z" transform="translate(-193.997 -106.848)" fill="#6290d3"/>
      <path id="Path_589" data-name="Path 589" d="M565.032,67.74c-1.842.692-3.98,1.854-4.591,3.894-.6,1.992,1.484,3.031,3.083,3.395,1.063.241,1.516-1.393.451-1.636a4.24,4.24,0,0,1-1.468-.526c-.636-.437-.462-.854-.06-1.435a6.154,6.154,0,0,1,3.036-2.057C566.5,68.995,566.057,67.355,565.032,67.74Z" transform="translate(-348.147 -40.054)" fill="#6290d3"/>
      <path id="Path_590" data-name="Path 590" d="M577.286,109.541a.856.856,0,0,0-1.16.3l-.377.754a.869.869,0,0,0,.3,1.16.856.856,0,0,0,1.16-.3l.377-.754a.869.869,0,0,0-.3-1.16Z" transform="translate(-355.979 -61.419)" fill="#6290d3"/>
      <path id="Path_591" data-name="Path 591" d="M563.381,213.632a.848.848,0,1,0,.82.848A.848.848,0,0,0,563.381,213.632Z" transform="translate(-349.285 -114.749)" fill="#6290d3"/>
      <path id="Path_592" data-name="Path 592" d="M545.884,285.281c-.126.706-.163,1.425-.264,2.134a3.437,3.437,0,0,1-.649,2.014c-.818.726.385,1.922,1.2,1.2,1.286-1.142,1.075-3.357,1.349-4.9C547.709,284.665,546.075,284.207,545.884,285.281Z" transform="translate(-340.143 -151.105)" fill="#6290d3"/>
      <path id="Path_593" data-name="Path 593" d="M479.959,268.277c.008,0,.017.007.025.012l-.018-.016-.006,0Z" transform="translate(-307.011 -142.714)" fill="#6290d3"/>
      <path id="Path_594" data-name="Path 594" d="M479,265.937c-.259-.071-.52-.168-.782-.226a.431.431,0,0,1-.13-.061c.133.132-.394.122-.025-.012a.931.931,0,0,0-.148-.086.687.687,0,0,1,.155.082,7.227,7.227,0,0,0,.749-.545,7.913,7.913,0,0,1,.871-.433c1-.427.138-1.888-.856-1.464-1.138.485-3.28,1.716-2.354,3.246a2.883,2.883,0,0,0,1.818,1.067c.618.174,1.346.168,1.247.941-.139,1.079,1.558,1.069,1.7,0C481.435,266.943,480.26,266.284,479,265.937Z" transform="translate(-305.114 -140.074)" fill="#6290d3"/>
      <path id="Path_595" data-name="Path 595" d="M235.038,325.054c-.458.421-1.476.141-2.038.128a.848.848,0,0,0,0,1.7c1.151.026,2.311.227,3.238-.625C237.042,325.514,235.841,324.317,235.038,325.054Z" transform="translate(-180.201 -171.655)" fill="#6290d3"/>
      <path id="Path_596" data-name="Path 596" d="M264.758,184.087a.84.84,0,0,0,.369,1.638l.027.012-.024-.013h0l.065.032a1.636,1.636,0,0,1,.354.241c.245.206.469.436.717.637a.873.873,0,0,0,1.2,0,.854.854,0,0,0,0-1.2C266.659,184.778,265.921,183.848,264.758,184.087Z" transform="translate(-196.554 -99.609)" fill="#6290d3"/>
      <path id="Path_597" data-name="Path 597" d="M336.746,49.155a.858.858,0,0,0-.818-.623,3.708,3.708,0,0,0-2.257.825.874.874,0,0,0-.3,1.16.854.854,0,0,0,1.16.3,3.847,3.847,0,0,1,.768-.452c.04-.017.069-.022.106-.036a.922.922,0,0,0,.808.2.868.868,0,0,0,.592-1.043Z" transform="translate(-231.932 -30.254)" fill="#6290d3"/>
      <path id="Path_598" data-name="Path 598" d="M137.583,68.287c-1.062-.037-2.034.405-3.106.392a7.29,7.29,0,0,1-3.5-.5c-.821-.436-1.761.653-1.028,1.332l.247.229a.808.808,0,0,0,.656.226,7.89,7.89,0,0,0,2.688.4,14.292,14.292,0,0,0,2.112-.031,11.057,11.057,0,0,1,1.928-.345C138.674,70.021,138.673,68.325,137.583,68.287Z" transform="translate(-127.747 -40.255)" fill="#6290d3"/>
      <path id="Path_599" data-name="Path 599" d="M134.811,182.837c-1.342.913-3.117,1.543-3.781,3.145a.854.854,0,0,0,.592,1.043.868.868,0,0,0,1.043-.592c.205-.495.933-.868,1.358-1.134.543-.34,1.114-.637,1.644-1C136.564,183.691,135.717,182.221,134.811,182.837Z" transform="translate(-128.418 -98.913)" fill="#6290d3"/>
      <path id="Path_600" data-name="Path 600" d="M155.156,307.03c-1.114-.152-2.078-.923-3.24-.784a.876.876,0,0,0-.848.848.852.852,0,0,0,.848.848c.969-.116,1.843.595,2.79.723a.879.879,0,0,0,1.043-.592.853.853,0,0,0-.592-1.043Z" transform="translate(-138.689 -162.139)" fill="#6290d3"/>
      <path id="Path_601" data-name="Path 601" d="M510.388,355.657c-1.239.166-1.883,1.111-2.695,1.958a7.668,7.668,0,0,0-1.8,2.63c-.908.3-.453,1.791.572,1.6l.306-.057a.837.837,0,0,0,.592-.592,4.965,4.965,0,0,1,1.367-2.222c.387-.4,1.075-1.543,1.655-1.621C511.454,357.21,511.468,355.512,510.388,355.657Z" transform="translate(-320.035 -187.431)" fill="#6290d3"/>
      <path id="Path_602" data-name="Path 602" d="M521.29,412.121l-1.507-.754a.869.869,0,0,0-1.16.3.856.856,0,0,0,.3,1.16l1.508.754a.869.869,0,0,0,1.16-.3A.856.856,0,0,0,521.29,412.121Z" transform="translate(-326.74 -215.892)" fill="#6290d3"/>
      <path id="Path_603" data-name="Path 603" d="M564.524,345.3a24.97,24.97,0,0,1-2.505,3.22c-.7.831.5,2.037,1.2,1.2a27.671,27.671,0,0,0,2.771-3.563.849.849,0,0,0-1.464-.856Z" transform="translate(-348.899 -181.934)" fill="#6290d3"/>
      <path id="Path_604" data-name="Path 604" d="M605.542,195.374c-.89.884-.634,2.113-.625,3.238a.848.848,0,0,0,1.7,0c0-.544-.3-1.612.128-2.038a.848.848,0,0,0-1.2-1.2Z" transform="translate(-370.941 -105.287)" fill="#6290d3"/>
      <path id="Path_605" data-name="Path 605" d="M152.251,405.841h-3.392a.848.848,0,0,0,0,1.7h3.392a.848.848,0,0,0,0-1.7Z" transform="translate(-137.139 -213.119)" fill="#6290d3"/>
      <path id="Path_606" data-name="Path 606" d="M206.995,399.771c.013,2.919.563,5.982-1.015,8.617a.849.849,0,0,0,1.464.856c1.756-2.932,1.261-6.212,1.246-9.473a.848.848,0,0,0-1.7,0Z" transform="translate(-166.727 -209.593)" fill="#6290d3"/>
      <path id="Path_607" data-name="Path 607" d="M202.122,459.1a.848.848,0,1,0,.819.848A.848.848,0,0,0,202.122,459.1Z" transform="translate(-164.398 -240.378)" fill="#6290d3"/>
    </g>
  </g>
</svg>
